#
# A mixture of water and urea
#

# All the atoms from diferent molecules will be separated at least 2.0
# Anstroms at the solution.

tolerance 5.0

# The file type of input and output files is PDB

filetype pdb

# The name of the output file

output mixture5.pdb

# 1000 water molecules and 740 urea molecules will be put in a box
# defined by the minimum coordinates x, y and z = 0. 0. 0. and maximum
# coordinates 74. 74. 74. That is, they will be put in a cube of side
# 74. (the keyword "inside cube 0. 0. 0. 74.") could be used as well.

structure c291.pdb
  number 1
  inside box 0. 0. 0. 74. 74. 74. 
end structure


structure c92.pdb
  number 1
  inside box 0. 0. 0. 74. 74. 74. 
end structure


structure c6.pdb
  number 1
  inside box 0. 0. 0. 74. 74. 74. 
end structure


structure c24.pdb
  number 1
  inside box 0. 0. 0. 74. 74. 74. 
end structure


structure c176.pdb
  number 1
  inside box 0. 0. 0. 74. 74. 74. 
end structure


structure c196.pdb
  number 1
  inside box 0. 0. 0. 74. 74. 74. 
end structure


structure c33.pdb
  number 1
  inside box 0. 0. 0. 74. 74. 74. 
end structure


structure c108.pdb
  number 1
  inside box 0. 0. 0. 74. 74. 74. 
end structure


structure c282.pdb
  number 1
  inside box 0. 0. 0. 74. 74. 74. 
end structure


structure c73.pdb
  number 1
  inside box 0. 0. 0. 74. 74. 74. 
end structure


structure c64.pdb
  number 1
  inside box 0. 0. 0. 74. 74. 74. 
end structure


structure c394.pdb
  number 1
  inside box 0. 0. 0. 74. 74. 74. 
end structure


structure c374.pdb
  number 1
  inside box 0. 0. 0. 74. 74. 74. 
end structure


structure c90.pdb
  number 1
  inside box 0. 0. 0. 74. 74. 74. 
end structure


structure c85.pdb
  number 1
  inside box 0. 0. 0. 74. 74. 74. 
end structure


structure c231.pdb
  number 1
  inside box 0. 0. 0. 74. 74. 74. 
end structure


structure c345.pdb
  number 1
  inside box 0. 0. 0. 74. 74. 74. 
end structure


structure c1.pdb
  number 1
  inside box 0. 0. 0. 74. 74. 74. 
end structure


structure c187.pdb
  number 1
  inside box 0. 0. 0. 74. 74. 74. 
end structure


structure c327.pdb
  number 1
  inside box 0. 0. 0. 74. 74. 74. 
end structure


structure c442.pdb
  number 1
  inside box 0. 0. 0. 74. 74. 74. 
end structure


structure c249.pdb
  number 1
  inside box 0. 0. 0. 74. 74. 74. 
end structure


structure c266.pdb
  number 1
  inside box 0. 0. 0. 74. 74. 74. 
end structure


structure c45.pdb
  number 1
  inside box 0. 0. 0. 74. 74. 74. 
end structure


structure c177.pdb
  number 1
  inside box 0. 0. 0. 74. 74. 74. 
end structure


structure c431.pdb
  number 1
  inside box 0. 0. 0. 74. 74. 74. 
end structure


structure c400.pdb
  number 1
  inside box 0. 0. 0. 74. 74. 74. 
end structure


structure c210.pdb
  number 1
  inside box 0. 0. 0. 74. 74. 74. 
end structure


structure c129.pdb
  number 1
  inside box 0. 0. 0. 74. 74. 74. 
end structure


structure c289.pdb
  number 1
  inside box 0. 0. 0. 74. 74. 74. 
end structure


structure c129.pdb
  number 1
  inside box 0. 0. 0. 74. 74. 74. 
end structure


structure c128.pdb
  number 1
  inside box 0. 0. 0. 74. 74. 74. 
end structure


structure c165.pdb
  number 1
  inside box 0. 0. 0. 74. 74. 74. 
end structure


structure c235.pdb
  number 1
  inside box 0. 0. 0. 74. 74. 74. 
end structure


structure c92.pdb
  number 1
  inside box 0. 0. 0. 74. 74. 74. 
end structure


structure c91.pdb
  number 1
  inside box 0. 0. 0. 74. 74. 74. 
end structure


structure c357.pdb
  number 1
  inside box 0. 0. 0. 74. 74. 74. 
end structure


structure c157.pdb
  number 1
  inside box 0. 0. 0. 74. 74. 74. 
end structure


structure c44.pdb
  number 1
  inside box 0. 0. 0. 74. 74. 74. 
end structure


structure c350.pdb
  number 1
  inside box 0. 0. 0. 74. 74. 74. 
end structure


structure c434.pdb
  number 1
  inside box 0. 0. 0. 74. 74. 74. 
end structure


structure c400.pdb
  number 1
  inside box 0. 0. 0. 74. 74. 74. 
end structure


structure c376.pdb
  number 1
  inside box 0. 0. 0. 74. 74. 74. 
end structure


structure c420.pdb
  number 1
  inside box 0. 0. 0. 74. 74. 74. 
end structure


structure c380.pdb
  number 1
  inside box 0. 0. 0. 74. 74. 74. 
end structure


structure c47.pdb
  number 1
  inside box 0. 0. 0. 74. 74. 74. 
end structure


structure c306.pdb
  number 1
  inside box 0. 0. 0. 74. 74. 74. 
end structure


structure c50.pdb
  number 1
  inside box 0. 0. 0. 74. 74. 74. 
end structure


structure c70.pdb
  number 1
  inside box 0. 0. 0. 74. 74. 74. 
end structure


structure c331.pdb
  number 1
  inside box 0. 0. 0. 74. 74. 74. 
end structure


structure c53.pdb
  number 1
  inside box 0. 0. 0. 74. 74. 74. 
end structure


structure c95.pdb
  number 1
  inside box 0. 0. 0. 74. 74. 74. 
end structure


structure c344.pdb
  number 1
  inside box 0. 0. 0. 74. 74. 74. 
end structure


structure c361.pdb
  number 1
  inside box 0. 0. 0. 74. 74. 74. 
end structure


