#
# A mixture of water and urea
#

# All the atoms from diferent molecules will be separated at least 2.0
# Anstroms at the solution.

tolerance 7.0

# The file type of input and output files is PDB

filetype pdb

# The name of the output file

output mixture104.pdb

# 1000 water molecules and 740 urea molecules will be put in a box
# defined by the minimum coordinates x, y and z = 0. 0. 0. and maximum
# coordinates 74. 74. 74. That is, they will be put in a cube of side
# 74. (the keyword "inside cube 0. 0. 0. 74.") could be used as well.

structure c181.pdb
  number 1
  inside box 0. 0. 0. 74. 74. 74. 
end structure


structure c135.pdb
  number 1
  inside box 0. 0. 0. 74. 74. 74. 
end structure


structure c229.pdb
  number 1
  inside box 0. 0. 0. 74. 74. 74. 
end structure


structure c64.pdb
  number 1
  inside box 0. 0. 0. 74. 74. 74. 
end structure


structure c103.pdb
  number 1
  inside box 0. 0. 0. 74. 74. 74. 
end structure


structure c325.pdb
  number 1
  inside box 0. 0. 0. 74. 74. 74. 
end structure


structure c395.pdb
  number 1
  inside box 0. 0. 0. 74. 74. 74. 
end structure


structure c47.pdb
  number 1
  inside box 0. 0. 0. 74. 74. 74. 
end structure


structure c233.pdb
  number 1
  inside box 0. 0. 0. 74. 74. 74. 
end structure


structure c366.pdb
  number 1
  inside box 0. 0. 0. 74. 74. 74. 
end structure


structure c185.pdb
  number 1
  inside box 0. 0. 0. 74. 74. 74. 
end structure


structure c206.pdb
  number 1
  inside box 0. 0. 0. 74. 74. 74. 
end structure


structure c283.pdb
  number 1
  inside box 0. 0. 0. 74. 74. 74. 
end structure


structure c347.pdb
  number 1
  inside box 0. 0. 0. 74. 74. 74. 
end structure


structure c209.pdb
  number 1
  inside box 0. 0. 0. 74. 74. 74. 
end structure


structure c385.pdb
  number 1
  inside box 0. 0. 0. 74. 74. 74. 
end structure


structure c50.pdb
  number 1
  inside box 0. 0. 0. 74. 74. 74. 
end structure


structure c324.pdb
  number 1
  inside box 0. 0. 0. 74. 74. 74. 
end structure


structure c110.pdb
  number 1
  inside box 0. 0. 0. 74. 74. 74. 
end structure


structure c361.pdb
  number 1
  inside box 0. 0. 0. 74. 74. 74. 
end structure


structure c244.pdb
  number 1
  inside box 0. 0. 0. 74. 74. 74. 
end structure


structure c169.pdb
  number 1
  inside box 0. 0. 0. 74. 74. 74. 
end structure


structure c111.pdb
  number 1
  inside box 0. 0. 0. 74. 74. 74. 
end structure


structure c170.pdb
  number 1
  inside box 0. 0. 0. 74. 74. 74. 
end structure


structure c107.pdb
  number 1
  inside box 0. 0. 0. 74. 74. 74. 
end structure


structure c5.pdb
  number 1
  inside box 0. 0. 0. 74. 74. 74. 
end structure


structure c438.pdb
  number 1
  inside box 0. 0. 0. 74. 74. 74. 
end structure


structure c222.pdb
  number 1
  inside box 0. 0. 0. 74. 74. 74. 
end structure


structure c148.pdb
  number 1
  inside box 0. 0. 0. 74. 74. 74. 
end structure


structure c14.pdb
  number 1
  inside box 0. 0. 0. 74. 74. 74. 
end structure


structure c76.pdb
  number 1
  inside box 0. 0. 0. 74. 74. 74. 
end structure


structure c78.pdb
  number 1
  inside box 0. 0. 0. 74. 74. 74. 
end structure


structure c307.pdb
  number 1
  inside box 0. 0. 0. 74. 74. 74. 
end structure


structure c131.pdb
  number 1
  inside box 0. 0. 0. 74. 74. 74. 
end structure


structure c39.pdb
  number 1
  inside box 0. 0. 0. 74. 74. 74. 
end structure


structure c144.pdb
  number 1
  inside box 0. 0. 0. 74. 74. 74. 
end structure


structure c205.pdb
  number 1
  inside box 0. 0. 0. 74. 74. 74. 
end structure


structure c350.pdb
  number 1
  inside box 0. 0. 0. 74. 74. 74. 
end structure


structure c434.pdb
  number 1
  inside box 0. 0. 0. 74. 74. 74. 
end structure


structure c7.pdb
  number 1
  inside box 0. 0. 0. 74. 74. 74. 
end structure


structure c182.pdb
  number 1
  inside box 0. 0. 0. 74. 74. 74. 
end structure


structure c277.pdb
  number 1
  inside box 0. 0. 0. 74. 74. 74. 
end structure


structure c73.pdb
  number 1
  inside box 0. 0. 0. 74. 74. 74. 
end structure


structure c104.pdb
  number 1
  inside box 0. 0. 0. 74. 74. 74. 
end structure


structure c34.pdb
  number 1
  inside box 0. 0. 0. 74. 74. 74. 
end structure


structure c428.pdb
  number 1
  inside box 0. 0. 0. 74. 74. 74. 
end structure


structure c132.pdb
  number 1
  inside box 0. 0. 0. 74. 74. 74. 
end structure


structure c409.pdb
  number 1
  inside box 0. 0. 0. 74. 74. 74. 
end structure


structure c79.pdb
  number 1
  inside box 0. 0. 0. 74. 74. 74. 
end structure


structure c6.pdb
  number 1
  inside box 0. 0. 0. 74. 74. 74. 
end structure


structure c240.pdb
  number 1
  inside box 0. 0. 0. 74. 74. 74. 
end structure


structure c356.pdb
  number 1
  inside box 0. 0. 0. 74. 74. 74. 
end structure


structure c445.pdb
  number 1
  inside box 0. 0. 0. 74. 74. 74. 
end structure


structure c183.pdb
  number 1
  inside box 0. 0. 0. 74. 74. 74. 
end structure


