#
# A mixture of water and urea
#

# All the atoms from diferent molecules will be separated at least 2.0
# Anstroms at the solution.

tolerance 7.0

# The file type of input and output files is PDB

filetype pdb

# The name of the output file

output mixture143.pdb

# 1000 water molecules and 740 urea molecules will be put in a box
# defined by the minimum coordinates x, y and z = 0. 0. 0. and maximum
# coordinates 74. 74. 74. That is, they will be put in a cube of side
# 74. (the keyword "inside cube 0. 0. 0. 74.") could be used as well.

structure c316.pdb
  number 1
  inside box 0. 0. 0. 74. 74. 74. 
end structure


structure c17.pdb
  number 1
  inside box 0. 0. 0. 74. 74. 74. 
end structure


structure c330.pdb
  number 1
  inside box 0. 0. 0. 74. 74. 74. 
end structure


structure c277.pdb
  number 1
  inside box 0. 0. 0. 74. 74. 74. 
end structure


structure c394.pdb
  number 1
  inside box 0. 0. 0. 74. 74. 74. 
end structure


structure c278.pdb
  number 1
  inside box 0. 0. 0. 74. 74. 74. 
end structure


structure c0.pdb
  number 1
  inside box 0. 0. 0. 74. 74. 74. 
end structure


structure c76.pdb
  number 1
  inside box 0. 0. 0. 74. 74. 74. 
end structure


structure c123.pdb
  number 1
  inside box 0. 0. 0. 74. 74. 74. 
end structure


structure c16.pdb
  number 1
  inside box 0. 0. 0. 74. 74. 74. 
end structure


structure c334.pdb
  number 1
  inside box 0. 0. 0. 74. 74. 74. 
end structure


structure c63.pdb
  number 1
  inside box 0. 0. 0. 74. 74. 74. 
end structure


structure c94.pdb
  number 1
  inside box 0. 0. 0. 74. 74. 74. 
end structure


structure c20.pdb
  number 1
  inside box 0. 0. 0. 74. 74. 74. 
end structure


structure c159.pdb
  number 1
  inside box 0. 0. 0. 74. 74. 74. 
end structure


structure c387.pdb
  number 1
  inside box 0. 0. 0. 74. 74. 74. 
end structure


structure c193.pdb
  number 1
  inside box 0. 0. 0. 74. 74. 74. 
end structure


structure c200.pdb
  number 1
  inside box 0. 0. 0. 74. 74. 74. 
end structure


structure c28.pdb
  number 1
  inside box 0. 0. 0. 74. 74. 74. 
end structure


structure c198.pdb
  number 1
  inside box 0. 0. 0. 74. 74. 74. 
end structure


structure c234.pdb
  number 1
  inside box 0. 0. 0. 74. 74. 74. 
end structure


structure c435.pdb
  number 1
  inside box 0. 0. 0. 74. 74. 74. 
end structure


structure c224.pdb
  number 1
  inside box 0. 0. 0. 74. 74. 74. 
end structure


structure c336.pdb
  number 1
  inside box 0. 0. 0. 74. 74. 74. 
end structure


structure c336.pdb
  number 1
  inside box 0. 0. 0. 74. 74. 74. 
end structure


structure c431.pdb
  number 1
  inside box 0. 0. 0. 74. 74. 74. 
end structure


structure c151.pdb
  number 1
  inside box 0. 0. 0. 74. 74. 74. 
end structure


structure c388.pdb
  number 1
  inside box 0. 0. 0. 74. 74. 74. 
end structure


structure c210.pdb
  number 1
  inside box 0. 0. 0. 74. 74. 74. 
end structure


structure c101.pdb
  number 1
  inside box 0. 0. 0. 74. 74. 74. 
end structure


structure c73.pdb
  number 1
  inside box 0. 0. 0. 74. 74. 74. 
end structure


structure c213.pdb
  number 1
  inside box 0. 0. 0. 74. 74. 74. 
end structure


structure c88.pdb
  number 1
  inside box 0. 0. 0. 74. 74. 74. 
end structure


structure c383.pdb
  number 1
  inside box 0. 0. 0. 74. 74. 74. 
end structure


structure c300.pdb
  number 1
  inside box 0. 0. 0. 74. 74. 74. 
end structure


structure c219.pdb
  number 1
  inside box 0. 0. 0. 74. 74. 74. 
end structure


structure c70.pdb
  number 1
  inside box 0. 0. 0. 74. 74. 74. 
end structure


structure c415.pdb
  number 1
  inside box 0. 0. 0. 74. 74. 74. 
end structure


structure c40.pdb
  number 1
  inside box 0. 0. 0. 74. 74. 74. 
end structure


structure c75.pdb
  number 1
  inside box 0. 0. 0. 74. 74. 74. 
end structure


structure c105.pdb
  number 1
  inside box 0. 0. 0. 74. 74. 74. 
end structure


structure c332.pdb
  number 1
  inside box 0. 0. 0. 74. 74. 74. 
end structure


structure c360.pdb
  number 1
  inside box 0. 0. 0. 74. 74. 74. 
end structure


structure c372.pdb
  number 1
  inside box 0. 0. 0. 74. 74. 74. 
end structure


structure c347.pdb
  number 1
  inside box 0. 0. 0. 74. 74. 74. 
end structure


structure c217.pdb
  number 1
  inside box 0. 0. 0. 74. 74. 74. 
end structure


structure c165.pdb
  number 1
  inside box 0. 0. 0. 74. 74. 74. 
end structure


structure c258.pdb
  number 1
  inside box 0. 0. 0. 74. 74. 74. 
end structure


structure c48.pdb
  number 1
  inside box 0. 0. 0. 74. 74. 74. 
end structure


structure c173.pdb
  number 1
  inside box 0. 0. 0. 74. 74. 74. 
end structure


structure c378.pdb
  number 1
  inside box 0. 0. 0. 74. 74. 74. 
end structure


structure c157.pdb
  number 1
  inside box 0. 0. 0. 74. 74. 74. 
end structure


structure c406.pdb
  number 1
  inside box 0. 0. 0. 74. 74. 74. 
end structure


structure c343.pdb
  number 1
  inside box 0. 0. 0. 74. 74. 74. 
end structure


