#
# A mixture of water and urea
#

# All the atoms from diferent molecules will be separated at least 2.0
# Anstroms at the solution.

tolerance 7.0

# The file type of input and output files is PDB

filetype pdb

# The name of the output file

output mixture121.pdb

# 1000 water molecules and 740 urea molecules will be put in a box
# defined by the minimum coordinates x, y and z = 0. 0. 0. and maximum
# coordinates 74. 74. 74. That is, they will be put in a cube of side
# 74. (the keyword "inside cube 0. 0. 0. 74.") could be used as well.

structure c15.pdb
  number 1
  inside box 0. 0. 0. 74. 74. 74. 
end structure


structure c137.pdb
  number 1
  inside box 0. 0. 0. 74. 74. 74. 
end structure


structure c141.pdb
  number 1
  inside box 0. 0. 0. 74. 74. 74. 
end structure


structure c171.pdb
  number 1
  inside box 0. 0. 0. 74. 74. 74. 
end structure


structure c432.pdb
  number 1
  inside box 0. 0. 0. 74. 74. 74. 
end structure


structure c52.pdb
  number 1
  inside box 0. 0. 0. 74. 74. 74. 
end structure


structure c208.pdb
  number 1
  inside box 0. 0. 0. 74. 74. 74. 
end structure


structure c262.pdb
  number 1
  inside box 0. 0. 0. 74. 74. 74. 
end structure


structure c142.pdb
  number 1
  inside box 0. 0. 0. 74. 74. 74. 
end structure


structure c444.pdb
  number 1
  inside box 0. 0. 0. 74. 74. 74. 
end structure


structure c227.pdb
  number 1
  inside box 0. 0. 0. 74. 74. 74. 
end structure


structure c24.pdb
  number 1
  inside box 0. 0. 0. 74. 74. 74. 
end structure


structure c303.pdb
  number 1
  inside box 0. 0. 0. 74. 74. 74. 
end structure


structure c207.pdb
  number 1
  inside box 0. 0. 0. 74. 74. 74. 
end structure


structure c37.pdb
  number 1
  inside box 0. 0. 0. 74. 74. 74. 
end structure


structure c7.pdb
  number 1
  inside box 0. 0. 0. 74. 74. 74. 
end structure


structure c22.pdb
  number 1
  inside box 0. 0. 0. 74. 74. 74. 
end structure


structure c375.pdb
  number 1
  inside box 0. 0. 0. 74. 74. 74. 
end structure


structure c333.pdb
  number 1
  inside box 0. 0. 0. 74. 74. 74. 
end structure


structure c156.pdb
  number 1
  inside box 0. 0. 0. 74. 74. 74. 
end structure


structure c6.pdb
  number 1
  inside box 0. 0. 0. 74. 74. 74. 
end structure


structure c17.pdb
  number 1
  inside box 0. 0. 0. 74. 74. 74. 
end structure


structure c98.pdb
  number 1
  inside box 0. 0. 0. 74. 74. 74. 
end structure


structure c180.pdb
  number 1
  inside box 0. 0. 0. 74. 74. 74. 
end structure


structure c35.pdb
  number 1
  inside box 0. 0. 0. 74. 74. 74. 
end structure


structure c21.pdb
  number 1
  inside box 0. 0. 0. 74. 74. 74. 
end structure


structure c27.pdb
  number 1
  inside box 0. 0. 0. 74. 74. 74. 
end structure


structure c156.pdb
  number 1
  inside box 0. 0. 0. 74. 74. 74. 
end structure


structure c425.pdb
  number 1
  inside box 0. 0. 0. 74. 74. 74. 
end structure


structure c355.pdb
  number 1
  inside box 0. 0. 0. 74. 74. 74. 
end structure


structure c184.pdb
  number 1
  inside box 0. 0. 0. 74. 74. 74. 
end structure


structure c317.pdb
  number 1
  inside box 0. 0. 0. 74. 74. 74. 
end structure


structure c247.pdb
  number 1
  inside box 0. 0. 0. 74. 74. 74. 
end structure


structure c414.pdb
  number 1
  inside box 0. 0. 0. 74. 74. 74. 
end structure


structure c385.pdb
  number 1
  inside box 0. 0. 0. 74. 74. 74. 
end structure


structure c214.pdb
  number 1
  inside box 0. 0. 0. 74. 74. 74. 
end structure


structure c79.pdb
  number 1
  inside box 0. 0. 0. 74. 74. 74. 
end structure


structure c257.pdb
  number 1
  inside box 0. 0. 0. 74. 74. 74. 
end structure


structure c227.pdb
  number 1
  inside box 0. 0. 0. 74. 74. 74. 
end structure


structure c276.pdb
  number 1
  inside box 0. 0. 0. 74. 74. 74. 
end structure


structure c79.pdb
  number 1
  inside box 0. 0. 0. 74. 74. 74. 
end structure


structure c431.pdb
  number 1
  inside box 0. 0. 0. 74. 74. 74. 
end structure


structure c325.pdb
  number 1
  inside box 0. 0. 0. 74. 74. 74. 
end structure


structure c62.pdb
  number 1
  inside box 0. 0. 0. 74. 74. 74. 
end structure


structure c138.pdb
  number 1
  inside box 0. 0. 0. 74. 74. 74. 
end structure


structure c332.pdb
  number 1
  inside box 0. 0. 0. 74. 74. 74. 
end structure


structure c226.pdb
  number 1
  inside box 0. 0. 0. 74. 74. 74. 
end structure


structure c22.pdb
  number 1
  inside box 0. 0. 0. 74. 74. 74. 
end structure


structure c299.pdb
  number 1
  inside box 0. 0. 0. 74. 74. 74. 
end structure


structure c318.pdb
  number 1
  inside box 0. 0. 0. 74. 74. 74. 
end structure


structure c50.pdb
  number 1
  inside box 0. 0. 0. 74. 74. 74. 
end structure


structure c45.pdb
  number 1
  inside box 0. 0. 0. 74. 74. 74. 
end structure


structure c80.pdb
  number 1
  inside box 0. 0. 0. 74. 74. 74. 
end structure


structure c369.pdb
  number 1
  inside box 0. 0. 0. 74. 74. 74. 
end structure


