#
# A mixture of water and urea
#

# All the atoms from diferent molecules will be separated at least 2.0
# Anstroms at the solution.

tolerance 5.0

# The file type of input and output files is PDB

filetype pdb

# The name of the output file

output mixture1.pdb

# 1000 water molecules and 740 urea molecules will be put in a box
# defined by the minimum coordinates x, y and z = 0. 0. 0. and maximum
# coordinates 74. 74. 74. That is, they will be put in a cube of side
# 74. (the keyword "inside cube 0. 0. 0. 74.") could be used as well.

structure c116.pdb
  number 1
  inside box 0. 0. 0. 74. 74. 74. 
end structure


structure c90.pdb
  number 1
  inside box 0. 0. 0. 74. 74. 74. 
end structure


structure c179.pdb
  number 1
  inside box 0. 0. 0. 74. 74. 74. 
end structure


structure c219.pdb
  number 1
  inside box 0. 0. 0. 74. 74. 74. 
end structure


structure c130.pdb
  number 1
  inside box 0. 0. 0. 74. 74. 74. 
end structure


structure c88.pdb
  number 1
  inside box 0. 0. 0. 74. 74. 74. 
end structure


structure c261.pdb
  number 1
  inside box 0. 0. 0. 74. 74. 74. 
end structure


structure c85.pdb
  number 1
  inside box 0. 0. 0. 74. 74. 74. 
end structure


structure c52.pdb
  number 1
  inside box 0. 0. 0. 74. 74. 74. 
end structure


structure c361.pdb
  number 1
  inside box 0. 0. 0. 74. 74. 74. 
end structure


structure c223.pdb
  number 1
  inside box 0. 0. 0. 74. 74. 74. 
end structure


structure c155.pdb
  number 1
  inside box 0. 0. 0. 74. 74. 74. 
end structure


structure c176.pdb
  number 1
  inside box 0. 0. 0. 74. 74. 74. 
end structure


structure c390.pdb
  number 1
  inside box 0. 0. 0. 74. 74. 74. 
end structure


structure c186.pdb
  number 1
  inside box 0. 0. 0. 74. 74. 74. 
end structure


structure c364.pdb
  number 1
  inside box 0. 0. 0. 74. 74. 74. 
end structure


structure c82.pdb
  number 1
  inside box 0. 0. 0. 74. 74. 74. 
end structure


structure c387.pdb
  number 1
  inside box 0. 0. 0. 74. 74. 74. 
end structure


structure c212.pdb
  number 1
  inside box 0. 0. 0. 74. 74. 74. 
end structure


structure c394.pdb
  number 1
  inside box 0. 0. 0. 74. 74. 74. 
end structure


structure c88.pdb
  number 1
  inside box 0. 0. 0. 74. 74. 74. 
end structure


structure c283.pdb
  number 1
  inside box 0. 0. 0. 74. 74. 74. 
end structure


structure c417.pdb
  number 1
  inside box 0. 0. 0. 74. 74. 74. 
end structure


structure c33.pdb
  number 1
  inside box 0. 0. 0. 74. 74. 74. 
end structure


structure c5.pdb
  number 1
  inside box 0. 0. 0. 74. 74. 74. 
end structure


structure c93.pdb
  number 1
  inside box 0. 0. 0. 74. 74. 74. 
end structure


structure c94.pdb
  number 1
  inside box 0. 0. 0. 74. 74. 74. 
end structure


structure c419.pdb
  number 1
  inside box 0. 0. 0. 74. 74. 74. 
end structure


structure c340.pdb
  number 1
  inside box 0. 0. 0. 74. 74. 74. 
end structure


structure c47.pdb
  number 1
  inside box 0. 0. 0. 74. 74. 74. 
end structure


structure c201.pdb
  number 1
  inside box 0. 0. 0. 74. 74. 74. 
end structure


structure c218.pdb
  number 1
  inside box 0. 0. 0. 74. 74. 74. 
end structure


structure c102.pdb
  number 1
  inside box 0. 0. 0. 74. 74. 74. 
end structure


structure c285.pdb
  number 1
  inside box 0. 0. 0. 74. 74. 74. 
end structure


structure c253.pdb
  number 1
  inside box 0. 0. 0. 74. 74. 74. 
end structure


structure c15.pdb
  number 1
  inside box 0. 0. 0. 74. 74. 74. 
end structure


structure c138.pdb
  number 1
  inside box 0. 0. 0. 74. 74. 74. 
end structure


structure c422.pdb
  number 1
  inside box 0. 0. 0. 74. 74. 74. 
end structure


structure c431.pdb
  number 1
  inside box 0. 0. 0. 74. 74. 74. 
end structure


structure c112.pdb
  number 1
  inside box 0. 0. 0. 74. 74. 74. 
end structure


structure c139.pdb
  number 1
  inside box 0. 0. 0. 74. 74. 74. 
end structure


structure c114.pdb
  number 1
  inside box 0. 0. 0. 74. 74. 74. 
end structure


structure c214.pdb
  number 1
  inside box 0. 0. 0. 74. 74. 74. 
end structure


structure c442.pdb
  number 1
  inside box 0. 0. 0. 74. 74. 74. 
end structure


structure c385.pdb
  number 1
  inside box 0. 0. 0. 74. 74. 74. 
end structure


structure c247.pdb
  number 1
  inside box 0. 0. 0. 74. 74. 74. 
end structure


structure c388.pdb
  number 1
  inside box 0. 0. 0. 74. 74. 74. 
end structure


structure c227.pdb
  number 1
  inside box 0. 0. 0. 74. 74. 74. 
end structure


structure c202.pdb
  number 1
  inside box 0. 0. 0. 74. 74. 74. 
end structure


structure c387.pdb
  number 1
  inside box 0. 0. 0. 74. 74. 74. 
end structure


structure c228.pdb
  number 1
  inside box 0. 0. 0. 74. 74. 74. 
end structure


structure c129.pdb
  number 1
  inside box 0. 0. 0. 74. 74. 74. 
end structure


structure c381.pdb
  number 1
  inside box 0. 0. 0. 74. 74. 74. 
end structure


structure c45.pdb
  number 1
  inside box 0. 0. 0. 74. 74. 74. 
end structure


