#
# A mixture of water and urea
#

# All the atoms from diferent molecules will be separated at least 2.0
# Anstroms at the solution.

tolerance 7.0

# The file type of input and output files is PDB

filetype pdb

# The name of the output file

output mixture130.pdb

# 1000 water molecules and 740 urea molecules will be put in a box
# defined by the minimum coordinates x, y and z = 0. 0. 0. and maximum
# coordinates 74. 74. 74. That is, they will be put in a cube of side
# 74. (the keyword "inside cube 0. 0. 0. 74.") could be used as well.

structure c255.pdb
  number 1
  inside box 0. 0. 0. 74. 74. 74. 
end structure


structure c88.pdb
  number 1
  inside box 0. 0. 0. 74. 74. 74. 
end structure


structure c358.pdb
  number 1
  inside box 0. 0. 0. 74. 74. 74. 
end structure


structure c300.pdb
  number 1
  inside box 0. 0. 0. 74. 74. 74. 
end structure


structure c70.pdb
  number 1
  inside box 0. 0. 0. 74. 74. 74. 
end structure


structure c149.pdb
  number 1
  inside box 0. 0. 0. 74. 74. 74. 
end structure


structure c44.pdb
  number 1
  inside box 0. 0. 0. 74. 74. 74. 
end structure


structure c188.pdb
  number 1
  inside box 0. 0. 0. 74. 74. 74. 
end structure


structure c198.pdb
  number 1
  inside box 0. 0. 0. 74. 74. 74. 
end structure


structure c270.pdb
  number 1
  inside box 0. 0. 0. 74. 74. 74. 
end structure


structure c33.pdb
  number 1
  inside box 0. 0. 0. 74. 74. 74. 
end structure


structure c236.pdb
  number 1
  inside box 0. 0. 0. 74. 74. 74. 
end structure


structure c242.pdb
  number 1
  inside box 0. 0. 0. 74. 74. 74. 
end structure


structure c187.pdb
  number 1
  inside box 0. 0. 0. 74. 74. 74. 
end structure


structure c299.pdb
  number 1
  inside box 0. 0. 0. 74. 74. 74. 
end structure


structure c33.pdb
  number 1
  inside box 0. 0. 0. 74. 74. 74. 
end structure


structure c179.pdb
  number 1
  inside box 0. 0. 0. 74. 74. 74. 
end structure


structure c239.pdb
  number 1
  inside box 0. 0. 0. 74. 74. 74. 
end structure


structure c161.pdb
  number 1
  inside box 0. 0. 0. 74. 74. 74. 
end structure


structure c409.pdb
  number 1
  inside box 0. 0. 0. 74. 74. 74. 
end structure


structure c189.pdb
  number 1
  inside box 0. 0. 0. 74. 74. 74. 
end structure


structure c263.pdb
  number 1
  inside box 0. 0. 0. 74. 74. 74. 
end structure


structure c98.pdb
  number 1
  inside box 0. 0. 0. 74. 74. 74. 
end structure


structure c380.pdb
  number 1
  inside box 0. 0. 0. 74. 74. 74. 
end structure


structure c18.pdb
  number 1
  inside box 0. 0. 0. 74. 74. 74. 
end structure


structure c294.pdb
  number 1
  inside box 0. 0. 0. 74. 74. 74. 
end structure


structure c225.pdb
  number 1
  inside box 0. 0. 0. 74. 74. 74. 
end structure


structure c138.pdb
  number 1
  inside box 0. 0. 0. 74. 74. 74. 
end structure


structure c23.pdb
  number 1
  inside box 0. 0. 0. 74. 74. 74. 
end structure


structure c241.pdb
  number 1
  inside box 0. 0. 0. 74. 74. 74. 
end structure


structure c110.pdb
  number 1
  inside box 0. 0. 0. 74. 74. 74. 
end structure


structure c103.pdb
  number 1
  inside box 0. 0. 0. 74. 74. 74. 
end structure


structure c47.pdb
  number 1
  inside box 0. 0. 0. 74. 74. 74. 
end structure


structure c341.pdb
  number 1
  inside box 0. 0. 0. 74. 74. 74. 
end structure


structure c197.pdb
  number 1
  inside box 0. 0. 0. 74. 74. 74. 
end structure


structure c307.pdb
  number 1
  inside box 0. 0. 0. 74. 74. 74. 
end structure


structure c111.pdb
  number 1
  inside box 0. 0. 0. 74. 74. 74. 
end structure


structure c417.pdb
  number 1
  inside box 0. 0. 0. 74. 74. 74. 
end structure


structure c444.pdb
  number 1
  inside box 0. 0. 0. 74. 74. 74. 
end structure


structure c327.pdb
  number 1
  inside box 0. 0. 0. 74. 74. 74. 
end structure


structure c34.pdb
  number 1
  inside box 0. 0. 0. 74. 74. 74. 
end structure


structure c323.pdb
  number 1
  inside box 0. 0. 0. 74. 74. 74. 
end structure


structure c239.pdb
  number 1
  inside box 0. 0. 0. 74. 74. 74. 
end structure


structure c390.pdb
  number 1
  inside box 0. 0. 0. 74. 74. 74. 
end structure


structure c111.pdb
  number 1
  inside box 0. 0. 0. 74. 74. 74. 
end structure


structure c99.pdb
  number 1
  inside box 0. 0. 0. 74. 74. 74. 
end structure


structure c309.pdb
  number 1
  inside box 0. 0. 0. 74. 74. 74. 
end structure


structure c415.pdb
  number 1
  inside box 0. 0. 0. 74. 74. 74. 
end structure


structure c384.pdb
  number 1
  inside box 0. 0. 0. 74. 74. 74. 
end structure


structure c376.pdb
  number 1
  inside box 0. 0. 0. 74. 74. 74. 
end structure


structure c274.pdb
  number 1
  inside box 0. 0. 0. 74. 74. 74. 
end structure


structure c408.pdb
  number 1
  inside box 0. 0. 0. 74. 74. 74. 
end structure


structure c133.pdb
  number 1
  inside box 0. 0. 0. 74. 74. 74. 
end structure


structure c396.pdb
  number 1
  inside box 0. 0. 0. 74. 74. 74. 
end structure


