#
# A mixture of water and urea
#

# All the atoms from diferent molecules will be separated at least 2.0
# Anstroms at the solution.

tolerance 7.0

# The file type of input and output files is PDB

filetype pdb

# The name of the output file

output mixture186.pdb

# 1000 water molecules and 740 urea molecules will be put in a box
# defined by the minimum coordinates x, y and z = 0. 0. 0. and maximum
# coordinates 74. 74. 74. That is, they will be put in a cube of side
# 74. (the keyword "inside cube 0. 0. 0. 74.") could be used as well.

structure c336.pdb
  number 1
  inside box 0. 0. 0. 74. 74. 74. 
end structure


structure c380.pdb
  number 1
  inside box 0. 0. 0. 74. 74. 74. 
end structure


structure c12.pdb
  number 1
  inside box 0. 0. 0. 74. 74. 74. 
end structure


structure c240.pdb
  number 1
  inside box 0. 0. 0. 74. 74. 74. 
end structure


structure c190.pdb
  number 1
  inside box 0. 0. 0. 74. 74. 74. 
end structure


structure c239.pdb
  number 1
  inside box 0. 0. 0. 74. 74. 74. 
end structure


structure c66.pdb
  number 1
  inside box 0. 0. 0. 74. 74. 74. 
end structure


structure c233.pdb
  number 1
  inside box 0. 0. 0. 74. 74. 74. 
end structure


structure c292.pdb
  number 1
  inside box 0. 0. 0. 74. 74. 74. 
end structure


structure c293.pdb
  number 1
  inside box 0. 0. 0. 74. 74. 74. 
end structure


structure c350.pdb
  number 1
  inside box 0. 0. 0. 74. 74. 74. 
end structure


structure c225.pdb
  number 1
  inside box 0. 0. 0. 74. 74. 74. 
end structure


structure c138.pdb
  number 1
  inside box 0. 0. 0. 74. 74. 74. 
end structure


structure c122.pdb
  number 1
  inside box 0. 0. 0. 74. 74. 74. 
end structure


structure c91.pdb
  number 1
  inside box 0. 0. 0. 74. 74. 74. 
end structure


structure c13.pdb
  number 1
  inside box 0. 0. 0. 74. 74. 74. 
end structure


structure c191.pdb
  number 1
  inside box 0. 0. 0. 74. 74. 74. 
end structure


structure c158.pdb
  number 1
  inside box 0. 0. 0. 74. 74. 74. 
end structure


structure c376.pdb
  number 1
  inside box 0. 0. 0. 74. 74. 74. 
end structure


structure c38.pdb
  number 1
  inside box 0. 0. 0. 74. 74. 74. 
end structure


structure c235.pdb
  number 1
  inside box 0. 0. 0. 74. 74. 74. 
end structure


structure c113.pdb
  number 1
  inside box 0. 0. 0. 74. 74. 74. 
end structure


structure c7.pdb
  number 1
  inside box 0. 0. 0. 74. 74. 74. 
end structure


structure c437.pdb
  number 1
  inside box 0. 0. 0. 74. 74. 74. 
end structure


structure c117.pdb
  number 1
  inside box 0. 0. 0. 74. 74. 74. 
end structure


structure c383.pdb
  number 1
  inside box 0. 0. 0. 74. 74. 74. 
end structure


structure c129.pdb
  number 1
  inside box 0. 0. 0. 74. 74. 74. 
end structure


structure c73.pdb
  number 1
  inside box 0. 0. 0. 74. 74. 74. 
end structure


structure c263.pdb
  number 1
  inside box 0. 0. 0. 74. 74. 74. 
end structure


structure c202.pdb
  number 1
  inside box 0. 0. 0. 74. 74. 74. 
end structure


structure c344.pdb
  number 1
  inside box 0. 0. 0. 74. 74. 74. 
end structure


structure c419.pdb
  number 1
  inside box 0. 0. 0. 74. 74. 74. 
end structure


structure c129.pdb
  number 1
  inside box 0. 0. 0. 74. 74. 74. 
end structure


structure c410.pdb
  number 1
  inside box 0. 0. 0. 74. 74. 74. 
end structure


structure c261.pdb
  number 1
  inside box 0. 0. 0. 74. 74. 74. 
end structure


structure c115.pdb
  number 1
  inside box 0. 0. 0. 74. 74. 74. 
end structure


structure c9.pdb
  number 1
  inside box 0. 0. 0. 74. 74. 74. 
end structure


structure c408.pdb
  number 1
  inside box 0. 0. 0. 74. 74. 74. 
end structure


structure c383.pdb
  number 1
  inside box 0. 0. 0. 74. 74. 74. 
end structure


structure c107.pdb
  number 1
  inside box 0. 0. 0. 74. 74. 74. 
end structure


structure c323.pdb
  number 1
  inside box 0. 0. 0. 74. 74. 74. 
end structure


structure c416.pdb
  number 1
  inside box 0. 0. 0. 74. 74. 74. 
end structure


structure c433.pdb
  number 1
  inside box 0. 0. 0. 74. 74. 74. 
end structure


structure c106.pdb
  number 1
  inside box 0. 0. 0. 74. 74. 74. 
end structure


structure c164.pdb
  number 1
  inside box 0. 0. 0. 74. 74. 74. 
end structure


structure c239.pdb
  number 1
  inside box 0. 0. 0. 74. 74. 74. 
end structure


structure c90.pdb
  number 1
  inside box 0. 0. 0. 74. 74. 74. 
end structure


structure c124.pdb
  number 1
  inside box 0. 0. 0. 74. 74. 74. 
end structure


structure c127.pdb
  number 1
  inside box 0. 0. 0. 74. 74. 74. 
end structure


structure c363.pdb
  number 1
  inside box 0. 0. 0. 74. 74. 74. 
end structure


structure c300.pdb
  number 1
  inside box 0. 0. 0. 74. 74. 74. 
end structure


structure c121.pdb
  number 1
  inside box 0. 0. 0. 74. 74. 74. 
end structure


structure c181.pdb
  number 1
  inside box 0. 0. 0. 74. 74. 74. 
end structure


structure c243.pdb
  number 1
  inside box 0. 0. 0. 74. 74. 74. 
end structure


