#
# A mixture of water and urea
#

# All the atoms from diferent molecules will be separated at least 2.0
# Anstroms at the solution.

tolerance 7.0

# The file type of input and output files is PDB

filetype pdb

# The name of the output file

output mixture175.pdb

# 1000 water molecules and 740 urea molecules will be put in a box
# defined by the minimum coordinates x, y and z = 0. 0. 0. and maximum
# coordinates 74. 74. 74. That is, they will be put in a cube of side
# 74. (the keyword "inside cube 0. 0. 0. 74.") could be used as well.

structure c312.pdb
  number 1
  inside box 0. 0. 0. 74. 74. 74. 
end structure


structure c341.pdb
  number 1
  inside box 0. 0. 0. 74. 74. 74. 
end structure


structure c286.pdb
  number 1
  inside box 0. 0. 0. 74. 74. 74. 
end structure


structure c219.pdb
  number 1
  inside box 0. 0. 0. 74. 74. 74. 
end structure


structure c187.pdb
  number 1
  inside box 0. 0. 0. 74. 74. 74. 
end structure


structure c335.pdb
  number 1
  inside box 0. 0. 0. 74. 74. 74. 
end structure


structure c309.pdb
  number 1
  inside box 0. 0. 0. 74. 74. 74. 
end structure


structure c138.pdb
  number 1
  inside box 0. 0. 0. 74. 74. 74. 
end structure


structure c135.pdb
  number 1
  inside box 0. 0. 0. 74. 74. 74. 
end structure


structure c258.pdb
  number 1
  inside box 0. 0. 0. 74. 74. 74. 
end structure


structure c283.pdb
  number 1
  inside box 0. 0. 0. 74. 74. 74. 
end structure


structure c34.pdb
  number 1
  inside box 0. 0. 0. 74. 74. 74. 
end structure


structure c97.pdb
  number 1
  inside box 0. 0. 0. 74. 74. 74. 
end structure


structure c249.pdb
  number 1
  inside box 0. 0. 0. 74. 74. 74. 
end structure


structure c323.pdb
  number 1
  inside box 0. 0. 0. 74. 74. 74. 
end structure


structure c38.pdb
  number 1
  inside box 0. 0. 0. 74. 74. 74. 
end structure


structure c102.pdb
  number 1
  inside box 0. 0. 0. 74. 74. 74. 
end structure


structure c323.pdb
  number 1
  inside box 0. 0. 0. 74. 74. 74. 
end structure


structure c285.pdb
  number 1
  inside box 0. 0. 0. 74. 74. 74. 
end structure


structure c89.pdb
  number 1
  inside box 0. 0. 0. 74. 74. 74. 
end structure


structure c302.pdb
  number 1
  inside box 0. 0. 0. 74. 74. 74. 
end structure


structure c372.pdb
  number 1
  inside box 0. 0. 0. 74. 74. 74. 
end structure


structure c404.pdb
  number 1
  inside box 0. 0. 0. 74. 74. 74. 
end structure


structure c427.pdb
  number 1
  inside box 0. 0. 0. 74. 74. 74. 
end structure


structure c357.pdb
  number 1
  inside box 0. 0. 0. 74. 74. 74. 
end structure


structure c83.pdb
  number 1
  inside box 0. 0. 0. 74. 74. 74. 
end structure


structure c48.pdb
  number 1
  inside box 0. 0. 0. 74. 74. 74. 
end structure


structure c441.pdb
  number 1
  inside box 0. 0. 0. 74. 74. 74. 
end structure


structure c137.pdb
  number 1
  inside box 0. 0. 0. 74. 74. 74. 
end structure


structure c426.pdb
  number 1
  inside box 0. 0. 0. 74. 74. 74. 
end structure


structure c258.pdb
  number 1
  inside box 0. 0. 0. 74. 74. 74. 
end structure


structure c40.pdb
  number 1
  inside box 0. 0. 0. 74. 74. 74. 
end structure


structure c360.pdb
  number 1
  inside box 0. 0. 0. 74. 74. 74. 
end structure


structure c219.pdb
  number 1
  inside box 0. 0. 0. 74. 74. 74. 
end structure


structure c319.pdb
  number 1
  inside box 0. 0. 0. 74. 74. 74. 
end structure


structure c416.pdb
  number 1
  inside box 0. 0. 0. 74. 74. 74. 
end structure


structure c376.pdb
  number 1
  inside box 0. 0. 0. 74. 74. 74. 
end structure


structure c13.pdb
  number 1
  inside box 0. 0. 0. 74. 74. 74. 
end structure


structure c29.pdb
  number 1
  inside box 0. 0. 0. 74. 74. 74. 
end structure


structure c216.pdb
  number 1
  inside box 0. 0. 0. 74. 74. 74. 
end structure


structure c133.pdb
  number 1
  inside box 0. 0. 0. 74. 74. 74. 
end structure


structure c271.pdb
  number 1
  inside box 0. 0. 0. 74. 74. 74. 
end structure


structure c340.pdb
  number 1
  inside box 0. 0. 0. 74. 74. 74. 
end structure


structure c17.pdb
  number 1
  inside box 0. 0. 0. 74. 74. 74. 
end structure


structure c19.pdb
  number 1
  inside box 0. 0. 0. 74. 74. 74. 
end structure


structure c195.pdb
  number 1
  inside box 0. 0. 0. 74. 74. 74. 
end structure


structure c94.pdb
  number 1
  inside box 0. 0. 0. 74. 74. 74. 
end structure


structure c19.pdb
  number 1
  inside box 0. 0. 0. 74. 74. 74. 
end structure


structure c208.pdb
  number 1
  inside box 0. 0. 0. 74. 74. 74. 
end structure


structure c396.pdb
  number 1
  inside box 0. 0. 0. 74. 74. 74. 
end structure


structure c56.pdb
  number 1
  inside box 0. 0. 0. 74. 74. 74. 
end structure


structure c319.pdb
  number 1
  inside box 0. 0. 0. 74. 74. 74. 
end structure


structure c108.pdb
  number 1
  inside box 0. 0. 0. 74. 74. 74. 
end structure


structure c282.pdb
  number 1
  inside box 0. 0. 0. 74. 74. 74. 
end structure


