#
# A mixture of water and urea
#

# All the atoms from diferent molecules will be separated at least 2.0
# Anstroms at the solution.

tolerance 7.0

# The file type of input and output files is PDB

filetype pdb

# The name of the output file

output mixture148.pdb

# 1000 water molecules and 740 urea molecules will be put in a box
# defined by the minimum coordinates x, y and z = 0. 0. 0. and maximum
# coordinates 74. 74. 74. That is, they will be put in a cube of side
# 74. (the keyword "inside cube 0. 0. 0. 74.") could be used as well.

structure c325.pdb
  number 1
  inside box 0. 0. 0. 74. 74. 74. 
end structure


structure c219.pdb
  number 1
  inside box 0. 0. 0. 74. 74. 74. 
end structure


structure c234.pdb
  number 1
  inside box 0. 0. 0. 74. 74. 74. 
end structure


structure c243.pdb
  number 1
  inside box 0. 0. 0. 74. 74. 74. 
end structure


structure c371.pdb
  number 1
  inside box 0. 0. 0. 74. 74. 74. 
end structure


structure c192.pdb
  number 1
  inside box 0. 0. 0. 74. 74. 74. 
end structure


structure c96.pdb
  number 1
  inside box 0. 0. 0. 74. 74. 74. 
end structure


structure c364.pdb
  number 1
  inside box 0. 0. 0. 74. 74. 74. 
end structure


structure c390.pdb
  number 1
  inside box 0. 0. 0. 74. 74. 74. 
end structure


structure c12.pdb
  number 1
  inside box 0. 0. 0. 74. 74. 74. 
end structure


structure c365.pdb
  number 1
  inside box 0. 0. 0. 74. 74. 74. 
end structure


structure c368.pdb
  number 1
  inside box 0. 0. 0. 74. 74. 74. 
end structure


structure c346.pdb
  number 1
  inside box 0. 0. 0. 74. 74. 74. 
end structure


structure c417.pdb
  number 1
  inside box 0. 0. 0. 74. 74. 74. 
end structure


structure c162.pdb
  number 1
  inside box 0. 0. 0. 74. 74. 74. 
end structure


structure c374.pdb
  number 1
  inside box 0. 0. 0. 74. 74. 74. 
end structure


structure c196.pdb
  number 1
  inside box 0. 0. 0. 74. 74. 74. 
end structure


structure c273.pdb
  number 1
  inside box 0. 0. 0. 74. 74. 74. 
end structure


structure c9.pdb
  number 1
  inside box 0. 0. 0. 74. 74. 74. 
end structure


structure c195.pdb
  number 1
  inside box 0. 0. 0. 74. 74. 74. 
end structure


structure c393.pdb
  number 1
  inside box 0. 0. 0. 74. 74. 74. 
end structure


structure c387.pdb
  number 1
  inside box 0. 0. 0. 74. 74. 74. 
end structure


structure c124.pdb
  number 1
  inside box 0. 0. 0. 74. 74. 74. 
end structure


structure c358.pdb
  number 1
  inside box 0. 0. 0. 74. 74. 74. 
end structure


structure c287.pdb
  number 1
  inside box 0. 0. 0. 74. 74. 74. 
end structure


structure c377.pdb
  number 1
  inside box 0. 0. 0. 74. 74. 74. 
end structure


structure c80.pdb
  number 1
  inside box 0. 0. 0. 74. 74. 74. 
end structure


structure c101.pdb
  number 1
  inside box 0. 0. 0. 74. 74. 74. 
end structure


structure c319.pdb
  number 1
  inside box 0. 0. 0. 74. 74. 74. 
end structure


structure c381.pdb
  number 1
  inside box 0. 0. 0. 74. 74. 74. 
end structure


structure c9.pdb
  number 1
  inside box 0. 0. 0. 74. 74. 74. 
end structure


structure c407.pdb
  number 1
  inside box 0. 0. 0. 74. 74. 74. 
end structure


structure c258.pdb
  number 1
  inside box 0. 0. 0. 74. 74. 74. 
end structure


structure c435.pdb
  number 1
  inside box 0. 0. 0. 74. 74. 74. 
end structure


structure c116.pdb
  number 1
  inside box 0. 0. 0. 74. 74. 74. 
end structure


structure c350.pdb
  number 1
  inside box 0. 0. 0. 74. 74. 74. 
end structure


structure c364.pdb
  number 1
  inside box 0. 0. 0. 74. 74. 74. 
end structure


structure c28.pdb
  number 1
  inside box 0. 0. 0. 74. 74. 74. 
end structure


structure c265.pdb
  number 1
  inside box 0. 0. 0. 74. 74. 74. 
end structure


structure c306.pdb
  number 1
  inside box 0. 0. 0. 74. 74. 74. 
end structure


structure c258.pdb
  number 1
  inside box 0. 0. 0. 74. 74. 74. 
end structure


structure c123.pdb
  number 1
  inside box 0. 0. 0. 74. 74. 74. 
end structure


structure c245.pdb
  number 1
  inside box 0. 0. 0. 74. 74. 74. 
end structure


structure c190.pdb
  number 1
  inside box 0. 0. 0. 74. 74. 74. 
end structure


structure c321.pdb
  number 1
  inside box 0. 0. 0. 74. 74. 74. 
end structure


structure c49.pdb
  number 1
  inside box 0. 0. 0. 74. 74. 74. 
end structure


structure c97.pdb
  number 1
  inside box 0. 0. 0. 74. 74. 74. 
end structure


structure c134.pdb
  number 1
  inside box 0. 0. 0. 74. 74. 74. 
end structure


structure c428.pdb
  number 1
  inside box 0. 0. 0. 74. 74. 74. 
end structure


structure c96.pdb
  number 1
  inside box 0. 0. 0. 74. 74. 74. 
end structure


structure c190.pdb
  number 1
  inside box 0. 0. 0. 74. 74. 74. 
end structure


structure c52.pdb
  number 1
  inside box 0. 0. 0. 74. 74. 74. 
end structure


structure c25.pdb
  number 1
  inside box 0. 0. 0. 74. 74. 74. 
end structure


structure c412.pdb
  number 1
  inside box 0. 0. 0. 74. 74. 74. 
end structure


