#
# A mixture of water and urea
#

# All the atoms from diferent molecules will be separated at least 2.0
# Anstroms at the solution.

tolerance 7.0

# The file type of input and output files is PDB

filetype pdb

# The name of the output file

output mixture198.pdb

# 1000 water molecules and 740 urea molecules will be put in a box
# defined by the minimum coordinates x, y and z = 0. 0. 0. and maximum
# coordinates 74. 74. 74. That is, they will be put in a cube of side
# 74. (the keyword "inside cube 0. 0. 0. 74.") could be used as well.

structure c368.pdb
  number 1
  inside box 0. 0. 0. 74. 74. 74. 
end structure


structure c70.pdb
  number 1
  inside box 0. 0. 0. 74. 74. 74. 
end structure


structure c307.pdb
  number 1
  inside box 0. 0. 0. 74. 74. 74. 
end structure


structure c52.pdb
  number 1
  inside box 0. 0. 0. 74. 74. 74. 
end structure


structure c436.pdb
  number 1
  inside box 0. 0. 0. 74. 74. 74. 
end structure


structure c176.pdb
  number 1
  inside box 0. 0. 0. 74. 74. 74. 
end structure


structure c417.pdb
  number 1
  inside box 0. 0. 0. 74. 74. 74. 
end structure


structure c373.pdb
  number 1
  inside box 0. 0. 0. 74. 74. 74. 
end structure


structure c14.pdb
  number 1
  inside box 0. 0. 0. 74. 74. 74. 
end structure


structure c193.pdb
  number 1
  inside box 0. 0. 0. 74. 74. 74. 
end structure


structure c427.pdb
  number 1
  inside box 0. 0. 0. 74. 74. 74. 
end structure


structure c108.pdb
  number 1
  inside box 0. 0. 0. 74. 74. 74. 
end structure


structure c218.pdb
  number 1
  inside box 0. 0. 0. 74. 74. 74. 
end structure


structure c315.pdb
  number 1
  inside box 0. 0. 0. 74. 74. 74. 
end structure


structure c202.pdb
  number 1
  inside box 0. 0. 0. 74. 74. 74. 
end structure


structure c336.pdb
  number 1
  inside box 0. 0. 0. 74. 74. 74. 
end structure


structure c41.pdb
  number 1
  inside box 0. 0. 0. 74. 74. 74. 
end structure


structure c252.pdb
  number 1
  inside box 0. 0. 0. 74. 74. 74. 
end structure


structure c171.pdb
  number 1
  inside box 0. 0. 0. 74. 74. 74. 
end structure


structure c67.pdb
  number 1
  inside box 0. 0. 0. 74. 74. 74. 
end structure


structure c182.pdb
  number 1
  inside box 0. 0. 0. 74. 74. 74. 
end structure


structure c308.pdb
  number 1
  inside box 0. 0. 0. 74. 74. 74. 
end structure


structure c252.pdb
  number 1
  inside box 0. 0. 0. 74. 74. 74. 
end structure


structure c314.pdb
  number 1
  inside box 0. 0. 0. 74. 74. 74. 
end structure


structure c285.pdb
  number 1
  inside box 0. 0. 0. 74. 74. 74. 
end structure


structure c99.pdb
  number 1
  inside box 0. 0. 0. 74. 74. 74. 
end structure


structure c304.pdb
  number 1
  inside box 0. 0. 0. 74. 74. 74. 
end structure


structure c78.pdb
  number 1
  inside box 0. 0. 0. 74. 74. 74. 
end structure


structure c426.pdb
  number 1
  inside box 0. 0. 0. 74. 74. 74. 
end structure


structure c7.pdb
  number 1
  inside box 0. 0. 0. 74. 74. 74. 
end structure


structure c67.pdb
  number 1
  inside box 0. 0. 0. 74. 74. 74. 
end structure


structure c326.pdb
  number 1
  inside box 0. 0. 0. 74. 74. 74. 
end structure


structure c71.pdb
  number 1
  inside box 0. 0. 0. 74. 74. 74. 
end structure


structure c100.pdb
  number 1
  inside box 0. 0. 0. 74. 74. 74. 
end structure


structure c401.pdb
  number 1
  inside box 0. 0. 0. 74. 74. 74. 
end structure


structure c336.pdb
  number 1
  inside box 0. 0. 0. 74. 74. 74. 
end structure


structure c229.pdb
  number 1
  inside box 0. 0. 0. 74. 74. 74. 
end structure


structure c133.pdb
  number 1
  inside box 0. 0. 0. 74. 74. 74. 
end structure


structure c275.pdb
  number 1
  inside box 0. 0. 0. 74. 74. 74. 
end structure


structure c307.pdb
  number 1
  inside box 0. 0. 0. 74. 74. 74. 
end structure


structure c263.pdb
  number 1
  inside box 0. 0. 0. 74. 74. 74. 
end structure


structure c356.pdb
  number 1
  inside box 0. 0. 0. 74. 74. 74. 
end structure


structure c165.pdb
  number 1
  inside box 0. 0. 0. 74. 74. 74. 
end structure


structure c210.pdb
  number 1
  inside box 0. 0. 0. 74. 74. 74. 
end structure


structure c11.pdb
  number 1
  inside box 0. 0. 0. 74. 74. 74. 
end structure


structure c323.pdb
  number 1
  inside box 0. 0. 0. 74. 74. 74. 
end structure


structure c53.pdb
  number 1
  inside box 0. 0. 0. 74. 74. 74. 
end structure


structure c71.pdb
  number 1
  inside box 0. 0. 0. 74. 74. 74. 
end structure


structure c66.pdb
  number 1
  inside box 0. 0. 0. 74. 74. 74. 
end structure


structure c3.pdb
  number 1
  inside box 0. 0. 0. 74. 74. 74. 
end structure


structure c299.pdb
  number 1
  inside box 0. 0. 0. 74. 74. 74. 
end structure


structure c43.pdb
  number 1
  inside box 0. 0. 0. 74. 74. 74. 
end structure


structure c101.pdb
  number 1
  inside box 0. 0. 0. 74. 74. 74. 
end structure


structure c4.pdb
  number 1
  inside box 0. 0. 0. 74. 74. 74. 
end structure


