#
# A mixture of water and urea
#

# All the atoms from diferent molecules will be separated at least 2.0
# Anstroms at the solution.

tolerance 7.0

# The file type of input and output files is PDB

filetype pdb

# The name of the output file

output mixture195.pdb

# 1000 water molecules and 740 urea molecules will be put in a box
# defined by the minimum coordinates x, y and z = 0. 0. 0. and maximum
# coordinates 74. 74. 74. That is, they will be put in a cube of side
# 74. (the keyword "inside cube 0. 0. 0. 74.") could be used as well.

structure c32.pdb
  number 1
  inside box 0. 0. 0. 74. 74. 74. 
end structure


structure c283.pdb
  number 1
  inside box 0. 0. 0. 74. 74. 74. 
end structure


structure c225.pdb
  number 1
  inside box 0. 0. 0. 74. 74. 74. 
end structure


structure c431.pdb
  number 1
  inside box 0. 0. 0. 74. 74. 74. 
end structure


structure c113.pdb
  number 1
  inside box 0. 0. 0. 74. 74. 74. 
end structure


structure c400.pdb
  number 1
  inside box 0. 0. 0. 74. 74. 74. 
end structure


structure c301.pdb
  number 1
  inside box 0. 0. 0. 74. 74. 74. 
end structure


structure c372.pdb
  number 1
  inside box 0. 0. 0. 74. 74. 74. 
end structure


structure c62.pdb
  number 1
  inside box 0. 0. 0. 74. 74. 74. 
end structure


structure c220.pdb
  number 1
  inside box 0. 0. 0. 74. 74. 74. 
end structure


structure c329.pdb
  number 1
  inside box 0. 0. 0. 74. 74. 74. 
end structure


structure c218.pdb
  number 1
  inside box 0. 0. 0. 74. 74. 74. 
end structure


structure c81.pdb
  number 1
  inside box 0. 0. 0. 74. 74. 74. 
end structure


structure c163.pdb
  number 1
  inside box 0. 0. 0. 74. 74. 74. 
end structure


structure c415.pdb
  number 1
  inside box 0. 0. 0. 74. 74. 74. 
end structure


structure c359.pdb
  number 1
  inside box 0. 0. 0. 74. 74. 74. 
end structure


structure c348.pdb
  number 1
  inside box 0. 0. 0. 74. 74. 74. 
end structure


structure c3.pdb
  number 1
  inside box 0. 0. 0. 74. 74. 74. 
end structure


structure c432.pdb
  number 1
  inside box 0. 0. 0. 74. 74. 74. 
end structure


structure c80.pdb
  number 1
  inside box 0. 0. 0. 74. 74. 74. 
end structure


structure c50.pdb
  number 1
  inside box 0. 0. 0. 74. 74. 74. 
end structure


structure c254.pdb
  number 1
  inside box 0. 0. 0. 74. 74. 74. 
end structure


structure c382.pdb
  number 1
  inside box 0. 0. 0. 74. 74. 74. 
end structure


structure c445.pdb
  number 1
  inside box 0. 0. 0. 74. 74. 74. 
end structure


structure c388.pdb
  number 1
  inside box 0. 0. 0. 74. 74. 74. 
end structure


structure c8.pdb
  number 1
  inside box 0. 0. 0. 74. 74. 74. 
end structure


structure c360.pdb
  number 1
  inside box 0. 0. 0. 74. 74. 74. 
end structure


structure c26.pdb
  number 1
  inside box 0. 0. 0. 74. 74. 74. 
end structure


structure c392.pdb
  number 1
  inside box 0. 0. 0. 74. 74. 74. 
end structure


structure c227.pdb
  number 1
  inside box 0. 0. 0. 74. 74. 74. 
end structure


structure c268.pdb
  number 1
  inside box 0. 0. 0. 74. 74. 74. 
end structure


structure c440.pdb
  number 1
  inside box 0. 0. 0. 74. 74. 74. 
end structure


structure c352.pdb
  number 1
  inside box 0. 0. 0. 74. 74. 74. 
end structure


structure c53.pdb
  number 1
  inside box 0. 0. 0. 74. 74. 74. 
end structure


structure c174.pdb
  number 1
  inside box 0. 0. 0. 74. 74. 74. 
end structure


structure c328.pdb
  number 1
  inside box 0. 0. 0. 74. 74. 74. 
end structure


structure c396.pdb
  number 1
  inside box 0. 0. 0. 74. 74. 74. 
end structure


structure c364.pdb
  number 1
  inside box 0. 0. 0. 74. 74. 74. 
end structure


structure c37.pdb
  number 1
  inside box 0. 0. 0. 74. 74. 74. 
end structure


structure c312.pdb
  number 1
  inside box 0. 0. 0. 74. 74. 74. 
end structure


structure c28.pdb
  number 1
  inside box 0. 0. 0. 74. 74. 74. 
end structure


structure c40.pdb
  number 1
  inside box 0. 0. 0. 74. 74. 74. 
end structure


structure c160.pdb
  number 1
  inside box 0. 0. 0. 74. 74. 74. 
end structure


structure c40.pdb
  number 1
  inside box 0. 0. 0. 74. 74. 74. 
end structure


structure c11.pdb
  number 1
  inside box 0. 0. 0. 74. 74. 74. 
end structure


structure c244.pdb
  number 1
  inside box 0. 0. 0. 74. 74. 74. 
end structure


structure c106.pdb
  number 1
  inside box 0. 0. 0. 74. 74. 74. 
end structure


structure c193.pdb
  number 1
  inside box 0. 0. 0. 74. 74. 74. 
end structure


structure c275.pdb
  number 1
  inside box 0. 0. 0. 74. 74. 74. 
end structure


structure c194.pdb
  number 1
  inside box 0. 0. 0. 74. 74. 74. 
end structure


structure c93.pdb
  number 1
  inside box 0. 0. 0. 74. 74. 74. 
end structure


structure c281.pdb
  number 1
  inside box 0. 0. 0. 74. 74. 74. 
end structure


structure c391.pdb
  number 1
  inside box 0. 0. 0. 74. 74. 74. 
end structure


structure c301.pdb
  number 1
  inside box 0. 0. 0. 74. 74. 74. 
end structure


